ST558_Homework4
…
ℹ Use `spec()` to retrieve the full column specification for this data.
ℹ Specify the column types or set `show_col_types = FALSE` to quiet this message.

# create the list of joining variables as the complement of those specified to avoid
inner_join_vars <- colnames(student_mat)[!colnames(student_mat) %in% c("G1","G2","G3","absences","paid")]
# join them as an inner join
dat <- inner_join(x = student_mat, y=student_por, by=inner_join_vars, suffix=c("_mat","_por"))
# show the tibble
dat

# A tibble: 320 × 38
   school sex     age address famsize Pstatus  Medu  Fedu Mjob     Fjob   reason
   <chr>  <chr> <dbl> <chr>   <chr>   <chr>   <dbl> <dbl> <chr>    <chr>  <chr> 
 1 GP     F        18 U       GT3     A           4     4 at_home  teach… course
 2 GP     F        17 U       GT3     T           1     1 at_home  other  course
 3 GP     F        15 U       GT3     T           4     2 health   servi… home  
 4 GP     F        16 U       GT3     T           3     3 other    other  home  
 5 GP     M        16 U       LE3     T           4     3 services other  reput…
 6 GP     M        16 U       LE3     T           2     2 other    other  home  
 7 GP     F        17 U       GT3     A           4     4 other    teach… home  
 8 GP     M        15 U       LE3     A           3     2 services other  home  
 9 GP     M        15 U       GT3     T           3     4 other    other  home  
10 GP     F        15 U       GT3     T           4     4 teacher  health reput…
# ℹ 310 more rows
# ℹ 27 more variables: guardian <chr>, traveltime <dbl>, studytime <dbl>,
#   failures <dbl>, schoolsup <chr>, famsup <chr>, paid_mat <chr>,
#   activities <chr>, nursery <chr>, higher <chr>, internet <chr>,
#   romantic <chr>, famrel <dbl>, freetime <dbl>, goout <dbl>, Dalc <dbl>,
#   Walc <dbl>, health <dbl>, absences_mat <dbl>, G1_mat <dbl>, G2_mat <dbl>,
#   G3_mat <dbl>, paid_por <chr>, absences_por <dbl>, G1_por <dbl>, …
…
